starting vacuum...end.
transaction type: <builtin: simple update>
scaling factor: 300
query mode: prepared
number of clients: 216
number of threads: 54
duration: 300 s
number of transactions actually processed: 66503627
latency average = 0.974 ms
tps = 221677.409607 (including connections establishing)
tps = 221688.842849 (excluding connections establishing)
