starting vacuum...end.
transaction type: <builtin: simple update>
scaling factor: 3000
query mode: prepared
number of clients: 288
number of threads: 72
duration: 300 s
number of transactions actually processed: 19702053
latency average = 4.385 ms
tps = 65672.396415 (including connections establishing)
tps = 65678.556638 (excluding connections establishing)
