starting vacuum...end.
transaction type: /home/tvondra/kernel-3.10.0/dilip-300.sql
scaling factor: 1
query mode: prepared
number of clients: 108
number of threads: 27
duration: 300 s
number of transactions actually processed: 24668658
latency average = 1.313 ms
tps = 82228.416241 (including connections establishing)
tps = 82230.902664 (excluding connections establishing)
