starting vacuum...end.
transaction type: /home/tvondra/kernel-3.10.0/dilip-300.sql
scaling factor: 1
query mode: prepared
number of clients: 72
number of threads: 18
duration: 300 s
number of transactions actually processed: 43042439
latency average = 0.502 ms
tps = 143474.349505 (including connections establishing)
tps = 143477.007986 (excluding connections establishing)
