starting vacuum...end.
transaction type: /home/tvondra/kernel-3.10.0/dilip-300.sql
scaling factor: 1
query mode: prepared
number of clients: 252
number of threads: 63
duration: 300 s
number of transactions actually processed: 21557802
latency average = 3.507 ms
tps = 71858.408236 (including connections establishing)
tps = 71862.323260 (excluding connections establishing)
