starting vacuum...end.
transaction type: <builtin: TPC-B (sort of)>
scaling factor: 300
query mode: prepared
number of clients: 144
number of threads: 36
duration: 300 s
number of transactions actually processed: 46739190
latency average = 0.924 ms
tps = 155796.499725 (including connections establishing)
tps = 155801.998527 (excluding connections establishing)
