starting vacuum...end.
transaction type: /home/tvondra/kernel-3.10.0/dilip-300.sql
scaling factor: 1
query mode: prepared
number of clients: 108
number of threads: 27
duration: 300 s
number of transactions actually processed: 25671609
latency average = 1.262 ms
tps = 85571.537393 (including connections establishing)
tps = 85573.941405 (excluding connections establishing)
