starting vacuum...end.
transaction type: <builtin: TPC-B (sort of)>
scaling factor: 3000
query mode: prepared
number of clients: 180
number of threads: 45
duration: 300 s
number of transactions actually processed: 23339674
latency average = 2.314 ms
tps = 77798.133537 (including connections establishing)
tps = 77803.627872 (excluding connections establishing)
