starting vacuum...end.
transaction type: /home/tvondra/kernel-3.10.0/dilip-3000.sql
scaling factor: 1
query mode: prepared
number of clients: 72
number of threads: 18
duration: 300 s
number of transactions actually processed: 26445861
latency average = 0.818 ms
tps = 88041.382024 (including connections establishing)
tps = 88043.120289 (excluding connections establishing)
