starting vacuum...end.
transaction type: <builtin: TPC-B (sort of)>
scaling factor: 3000
query mode: prepared
number of clients: 144
number of threads: 36
duration: 300 s
number of transactions actually processed: 27853027
latency average = 1.551 ms
tps = 92842.675950 (including connections establishing)
tps = 92847.940983 (excluding connections establishing)
