starting vacuum...end.
transaction type: <builtin: TPC-B (sort of)>
scaling factor: 3000
query mode: prepared
number of clients: 108
number of threads: 27
duration: 300 s
number of transactions actually processed: 30118972
latency average = 1.076 ms
tps = 100396.014128 (including connections establishing)
tps = 100400.472943 (excluding connections establishing)
