starting vacuum...end.
transaction type: <builtin: TPC-B (sort of)>
scaling factor: 300
query mode: prepared
number of clients: 216
number of threads: 54
duration: 300 s
number of transactions actually processed: 44326198
latency average = 1.462 ms
tps = 147751.304260 (including connections establishing)
tps = 147758.318582 (excluding connections establishing)
