starting vacuum...end.
transaction type: <builtin: TPC-B (sort of)>
scaling factor: 300
query mode: prepared
number of clients: 288
number of threads: 72
duration: 300 s
number of transactions actually processed: 42733353
latency average = 2.022 ms
tps = 142442.375738 (including connections establishing)
tps = 142452.543240 (excluding connections establishing)
