NOTICE:  table "pgbench_history" does not exist, skipping
NOTICE:  table "pgbench_tellers" does not exist, skipping
NOTICE:  table "pgbench_accounts" does not exist, skipping
NOTICE:  table "pgbench_branches" does not exist, skipping
creating tables...
100000 of 30000000 tuples (0%) done (elapsed 0.07 s, remaining 21.73 s)
200000 of 30000000 tuples (0%) done (elapsed 0.16 s, remaining 23.99 s)
300000 of 30000000 tuples (1%) done (elapsed 0.25 s, remaining 24.74 s)
400000 of 30000000 tuples (1%) done (elapsed 0.34 s, remaining 25.14 s)
500000 of 30000000 tuples (1%) done (elapsed 0.42 s, remaining 24.72 s)
600000 of 30000000 tuples (2%) done (elapsed 0.51 s, remaining 24.85 s)
700000 of 30000000 tuples (2%) done (elapsed 0.59 s, remaining 24.71 s)
800000 of 30000000 tuples (2%) done (elapsed 0.66 s, remaining 24.00 s)
900000 of 30000000 tuples (3%) done (elapsed 0.72 s, remaining 23.40 s)
1000000 of 30000000 tuples (3%) done (elapsed 0.79 s, remaining 22.87 s)
1100000 of 30000000 tuples (3%) done (elapsed 0.86 s, remaining 22.55 s)
1200000 of 30000000 tuples (4%) done (elapsed 0.92 s, remaining 22.14 s)
1300000 of 30000000 tuples (4%) done (elapsed 0.99 s, remaining 21.88 s)
1400000 of 30000000 tuples (4%) done (elapsed 1.09 s, remaining 22.23 s)
1500000 of 30000000 tuples (5%) done (elapsed 1.20 s, remaining 22.73 s)
1600000 of 30000000 tuples (5%) done (elapsed 1.28 s, remaining 22.79 s)
1700000 of 30000000 tuples (5%) done (elapsed 1.37 s, remaining 22.88 s)
1800000 of 30000000 tuples (6%) done (elapsed 1.47 s, remaining 22.98 s)
1900000 of 30000000 tuples (6%) done (elapsed 1.56 s, remaining 23.03 s)
2000000 of 30000000 tuples (6%) done (elapsed 1.65 s, remaining 23.07 s)
2100000 of 30000000 tuples (7%) done (elapsed 1.74 s, remaining 23.09 s)
2200000 of 30000000 tuples (7%) done (elapsed 1.83 s, remaining 23.11 s)
2300000 of 30000000 tuples (7%) done (elapsed 1.90 s, remaining 22.92 s)
2400000 of 30000000 tuples (8%) done (elapsed 1.97 s, remaining 22.69 s)
2500000 of 30000000 tuples (8%) done (elapsed 2.04 s, remaining 22.47 s)
2600000 of 30000000 tuples (8%) done (elapsed 2.11 s, remaining 22.26 s)
2700000 of 30000000 tuples (9%) done (elapsed 2.18 s, remaining 22.06 s)
2800000 of 30000000 tuples (9%) done (elapsed 2.25 s, remaining 21.87 s)
2900000 of 30000000 tuples (9%) done (elapsed 2.32 s, remaining 21.69 s)
3000000 of 30000000 tuples (10%) done (elapsed 2.39 s, remaining 21.51 s)
3100000 of 30000000 tuples (10%) done (elapsed 2.46 s, remaining 21.35 s)
3200000 of 30000000 tuples (10%) done (elapsed 2.54 s, remaining 21.29 s)
3300000 of 30000000 tuples (11%) done (elapsed 2.63 s, remaining 21.32 s)
3400000 of 30000000 tuples (11%) done (elapsed 2.72 s, remaining 21.32 s)
3500000 of 30000000 tuples (11%) done (elapsed 2.82 s, remaining 21.34 s)
3600000 of 30000000 tuples (12%) done (elapsed 2.90 s, remaining 21.27 s)
3700000 of 30000000 tuples (12%) done (elapsed 2.99 s, remaining 21.25 s)
3800000 of 30000000 tuples (12%) done (elapsed 3.08 s, remaining 21.24 s)
3900000 of 30000000 tuples (13%) done (elapsed 3.17 s, remaining 21.22 s)
4000000 of 30000000 tuples (13%) done (elapsed 3.25 s, remaining 21.10 s)
4100000 of 30000000 tuples (13%) done (elapsed 3.31 s, remaining 20.92 s)
4200000 of 30000000 tuples (14%) done (elapsed 3.38 s, remaining 20.77 s)
4300000 of 30000000 tuples (14%) done (elapsed 3.45 s, remaining 20.62 s)
4400000 of 30000000 tuples (14%) done (elapsed 3.52 s, remaining 20.48 s)
4500000 of 30000000 tuples (15%) done (elapsed 3.59 s, remaining 20.34 s)
4600000 of 30000000 tuples (15%) done (elapsed 3.66 s, remaining 20.20 s)
4700000 of 30000000 tuples (15%) done (elapsed 3.73 s, remaining 20.07 s)
4800000 of 30000000 tuples (16%) done (elapsed 3.80 s, remaining 19.93 s)
4900000 of 30000000 tuples (16%) done (elapsed 3.87 s, remaining 19.80 s)
5000000 of 30000000 tuples (16%) done (elapsed 3.93 s, remaining 19.65 s)
5100000 of 30000000 tuples (17%) done (elapsed 4.00 s, remaining 19.52 s)
5200000 of 30000000 tuples (17%) done (elapsed 4.07 s, remaining 19.40 s)
5300000 of 30000000 tuples (17%) done (elapsed 4.14 s, remaining 19.28 s)
5400000 of 30000000 tuples (18%) done (elapsed 4.21 s, remaining 19.17 s)
5500000 of 30000000 tuples (18%) done (elapsed 4.28 s, remaining 19.05 s)
5600000 of 30000000 tuples (18%) done (elapsed 4.34 s, remaining 18.93 s)
5700000 of 30000000 tuples (19%) done (elapsed 4.41 s, remaining 18.82 s)
5800000 of 30000000 tuples (19%) done (elapsed 4.48 s, remaining 18.68 s)
5900000 of 30000000 tuples (19%) done (elapsed 4.55 s, remaining 18.57 s)
6000000 of 30000000 tuples (20%) done (elapsed 4.62 s, remaining 18.46 s)
6100000 of 30000000 tuples (20%) done (elapsed 4.68 s, remaining 18.35 s)
6200000 of 30000000 tuples (20%) done (elapsed 4.75 s, remaining 18.25 s)
6300000 of 30000000 tuples (21%) done (elapsed 4.82 s, remaining 18.14 s)
6400000 of 30000000 tuples (21%) done (elapsed 4.89 s, remaining 18.04 s)
6500000 of 30000000 tuples (21%) done (elapsed 4.96 s, remaining 17.92 s)
6600000 of 30000000 tuples (22%) done (elapsed 5.02 s, remaining 17.81 s)
6700000 of 30000000 tuples (22%) done (elapsed 5.09 s, remaining 17.71 s)
6800000 of 30000000 tuples (22%) done (elapsed 5.16 s, remaining 17.61 s)
6900000 of 30000000 tuples (23%) done (elapsed 5.23 s, remaining 17.50 s)
7000000 of 30000000 tuples (23%) done (elapsed 5.30 s, remaining 17.40 s)
7100000 of 30000000 tuples (23%) done (elapsed 5.37 s, remaining 17.30 s)
7200000 of 30000000 tuples (24%) done (elapsed 5.43 s, remaining 17.19 s)
7300000 of 30000000 tuples (24%) done (elapsed 5.50 s, remaining 17.09 s)
7400000 of 30000000 tuples (24%) done (elapsed 5.57 s, remaining 17.00 s)
7500000 of 30000000 tuples (25%) done (elapsed 5.64 s, remaining 16.91 s)
7600000 of 30000000 tuples (25%) done (elapsed 5.70 s, remaining 16.80 s)
7700000 of 30000000 tuples (25%) done (elapsed 5.77 s, remaining 16.71 s)
7800000 of 30000000 tuples (26%) done (elapsed 5.84 s, remaining 16.61 s)
7900000 of 30000000 tuples (26%) done (elapsed 5.91 s, remaining 16.52 s)
8000000 of 30000000 tuples (26%) done (elapsed 5.98 s, remaining 16.43 s)
8100000 of 30000000 tuples (27%) done (elapsed 6.04 s, remaining 16.33 s)
8200000 of 30000000 tuples (27%) done (elapsed 6.11 s, remaining 16.24 s)
8300000 of 30000000 tuples (27%) done (elapsed 6.17 s, remaining 16.14 s)
8400000 of 30000000 tuples (28%) done (elapsed 6.24 s, remaining 16.05 s)
8500000 of 30000000 tuples (28%) done (elapsed 6.31 s, remaining 15.97 s)
8600000 of 30000000 tuples (28%) done (elapsed 6.38 s, remaining 15.88 s)
8700000 of 30000000 tuples (29%) done (elapsed 6.45 s, remaining 15.78 s)
8800000 of 30000000 tuples (29%) done (elapsed 6.52 s, remaining 15.70 s)
8900000 of 30000000 tuples (29%) done (elapsed 6.58 s, remaining 15.61 s)
9000000 of 30000000 tuples (30%) done (elapsed 6.65 s, remaining 15.52 s)
9100000 of 30000000 tuples (30%) done (elapsed 6.72 s, remaining 15.43 s)
9200000 of 30000000 tuples (30%) done (elapsed 6.79 s, remaining 15.34 s)
9300000 of 30000000 tuples (31%) done (elapsed 6.85 s, remaining 15.26 s)
9400000 of 30000000 tuples (31%) done (elapsed 6.92 s, remaining 15.16 s)
9500000 of 30000000 tuples (31%) done (elapsed 6.99 s, remaining 15.08 s)
9600000 of 30000000 tuples (32%) done (elapsed 7.06 s, remaining 14.99 s)
9700000 of 30000000 tuples (32%) done (elapsed 7.12 s, remaining 14.90 s)
9800000 of 30000000 tuples (32%) done (elapsed 7.19 s, remaining 14.82 s)
9900000 of 30000000 tuples (33%) done (elapsed 7.26 s, remaining 14.74 s)
10000000 of 30000000 tuples (33%) done (elapsed 7.33 s, remaining 14.65 s)
10100000 of 30000000 tuples (33%) done (elapsed 7.39 s, remaining 14.56 s)
10200000 of 30000000 tuples (34%) done (elapsed 7.46 s, remaining 14.49 s)
10300000 of 30000000 tuples (34%) done (elapsed 7.53 s, remaining 14.40 s)
10400000 of 30000000 tuples (34%) done (elapsed 7.60 s, remaining 14.33 s)
10500000 of 30000000 tuples (35%) done (elapsed 7.67 s, remaining 14.24 s)
10600000 of 30000000 tuples (35%) done (elapsed 7.74 s, remaining 14.16 s)
10700000 of 30000000 tuples (35%) done (elapsed 7.81 s, remaining 14.08 s)
10800000 of 30000000 tuples (36%) done (elapsed 7.87 s, remaining 14.00 s)
10900000 of 30000000 tuples (36%) done (elapsed 7.95 s, remaining 13.92 s)
11000000 of 30000000 tuples (36%) done (elapsed 8.01 s, remaining 13.84 s)
11100000 of 30000000 tuples (37%) done (elapsed 8.08 s, remaining 13.77 s)
11200000 of 30000000 tuples (37%) done (elapsed 8.15 s, remaining 13.68 s)
11300000 of 30000000 tuples (37%) done (elapsed 8.22 s, remaining 13.61 s)
11400000 of 30000000 tuples (38%) done (elapsed 8.29 s, remaining 13.52 s)
11500000 of 30000000 tuples (38%) done (elapsed 8.36 s, remaining 13.45 s)
11600000 of 30000000 tuples (38%) done (elapsed 8.43 s, remaining 13.37 s)
11700000 of 30000000 tuples (39%) done (elapsed 8.49 s, remaining 13.28 s)
11800000 of 30000000 tuples (39%) done (elapsed 8.56 s, remaining 13.21 s)
11900000 of 30000000 tuples (39%) done (elapsed 8.63 s, remaining 13.13 s)
12000000 of 30000000 tuples (40%) done (elapsed 8.70 s, remaining 13.05 s)
12100000 of 30000000 tuples (40%) done (elapsed 8.77 s, remaining 12.97 s)
12200000 of 30000000 tuples (40%) done (elapsed 8.84 s, remaining 12.90 s)
12300000 of 30000000 tuples (41%) done (elapsed 8.91 s, remaining 12.82 s)
12400000 of 30000000 tuples (41%) done (elapsed 8.98 s, remaining 12.74 s)
12500000 of 30000000 tuples (41%) done (elapsed 9.05 s, remaining 12.66 s)
12600000 of 30000000 tuples (42%) done (elapsed 9.12 s, remaining 12.59 s)
12700000 of 30000000 tuples (42%) done (elapsed 9.18 s, remaining 12.51 s)
12800000 of 30000000 tuples (42%) done (elapsed 9.26 s, remaining 12.44 s)
12900000 of 30000000 tuples (43%) done (elapsed 9.32 s, remaining 12.36 s)
13000000 of 30000000 tuples (43%) done (elapsed 9.40 s, remaining 12.29 s)
13100000 of 30000000 tuples (43%) done (elapsed 9.46 s, remaining 12.21 s)
13200000 of 30000000 tuples (44%) done (elapsed 9.53 s, remaining 12.13 s)
13300000 of 30000000 tuples (44%) done (elapsed 9.60 s, remaining 12.05 s)
13400000 of 30000000 tuples (44%) done (elapsed 9.67 s, remaining 11.98 s)
13500000 of 30000000 tuples (45%) done (elapsed 9.74 s, remaining 11.90 s)
13600000 of 30000000 tuples (45%) done (elapsed 9.81 s, remaining 11.83 s)
13700000 of 30000000 tuples (45%) done (elapsed 9.88 s, remaining 11.75 s)
13800000 of 30000000 tuples (46%) done (elapsed 9.95 s, remaining 11.68 s)
13900000 of 30000000 tuples (46%) done (elapsed 10.01 s, remaining 11.60 s)
14000000 of 30000000 tuples (46%) done (elapsed 10.09 s, remaining 11.53 s)
14100000 of 30000000 tuples (47%) done (elapsed 10.15 s, remaining 11.45 s)
14200000 of 30000000 tuples (47%) done (elapsed 10.22 s, remaining 11.38 s)
14300000 of 30000000 tuples (47%) done (elapsed 10.29 s, remaining 11.30 s)
14400000 of 30000000 tuples (48%) done (elapsed 10.36 s, remaining 11.23 s)
14500000 of 30000000 tuples (48%) done (elapsed 10.43 s, remaining 11.15 s)
14600000 of 30000000 tuples (48%) done (elapsed 10.50 s, remaining 11.07 s)
14700000 of 30000000 tuples (49%) done (elapsed 10.57 s, remaining 11.00 s)
14800000 of 30000000 tuples (49%) done (elapsed 10.63 s, remaining 10.92 s)
14900000 of 30000000 tuples (49%) done (elapsed 10.71 s, remaining 10.85 s)
15000000 of 30000000 tuples (50%) done (elapsed 10.78 s, remaining 10.78 s)
15100000 of 30000000 tuples (50%) done (elapsed 10.84 s, remaining 10.70 s)
15200000 of 30000000 tuples (50%) done (elapsed 10.91 s, remaining 10.63 s)
15300000 of 30000000 tuples (51%) done (elapsed 10.98 s, remaining 10.55 s)
15400000 of 30000000 tuples (51%) done (elapsed 11.05 s, remaining 10.48 s)
15500000 of 30000000 tuples (51%) done (elapsed 11.12 s, remaining 10.40 s)
15600000 of 30000000 tuples (52%) done (elapsed 11.19 s, remaining 10.33 s)
15700000 of 30000000 tuples (52%) done (elapsed 11.26 s, remaining 10.25 s)
15800000 of 30000000 tuples (52%) done (elapsed 11.33 s, remaining 10.18 s)
15900000 of 30000000 tuples (53%) done (elapsed 11.40 s, remaining 10.11 s)
16000000 of 30000000 tuples (53%) done (elapsed 11.47 s, remaining 10.03 s)
16100000 of 30000000 tuples (53%) done (elapsed 11.53 s, remaining 9.96 s)
16200000 of 30000000 tuples (54%) done (elapsed 11.60 s, remaining 9.88 s)
16300000 of 30000000 tuples (54%) done (elapsed 11.67 s, remaining 9.81 s)
16400000 of 30000000 tuples (54%) done (elapsed 11.74 s, remaining 9.74 s)
16500000 of 30000000 tuples (55%) done (elapsed 11.81 s, remaining 9.67 s)
16600000 of 30000000 tuples (55%) done (elapsed 11.88 s, remaining 9.59 s)
16700000 of 30000000 tuples (55%) done (elapsed 11.95 s, remaining 9.52 s)
16800000 of 30000000 tuples (56%) done (elapsed 12.02 s, remaining 9.44 s)
16900000 of 30000000 tuples (56%) done (elapsed 12.09 s, remaining 9.37 s)
17000000 of 30000000 tuples (56%) done (elapsed 12.15 s, remaining 9.29 s)
17100000 of 30000000 tuples (57%) done (elapsed 12.23 s, remaining 9.22 s)
17200000 of 30000000 tuples (57%) done (elapsed 12.29 s, remaining 9.15 s)
17300000 of 30000000 tuples (57%) done (elapsed 12.36 s, remaining 9.08 s)
17400000 of 30000000 tuples (58%) done (elapsed 12.43 s, remaining 9.00 s)
17500000 of 30000000 tuples (58%) done (elapsed 12.50 s, remaining 8.93 s)
17600000 of 30000000 tuples (58%) done (elapsed 12.57 s, remaining 8.86 s)
17700000 of 30000000 tuples (59%) done (elapsed 12.64 s, remaining 8.78 s)
17800000 of 30000000 tuples (59%) done (elapsed 12.71 s, remaining 8.71 s)
17900000 of 30000000 tuples (59%) done (elapsed 12.78 s, remaining 8.64 s)
18000000 of 30000000 tuples (60%) done (elapsed 12.85 s, remaining 8.56 s)
18100000 of 30000000 tuples (60%) done (elapsed 12.91 s, remaining 8.49 s)
18200000 of 30000000 tuples (60%) done (elapsed 12.98 s, remaining 8.42 s)
18300000 of 30000000 tuples (61%) done (elapsed 13.05 s, remaining 8.35 s)
18400000 of 30000000 tuples (61%) done (elapsed 13.12 s, remaining 8.27 s)
18500000 of 30000000 tuples (61%) done (elapsed 13.19 s, remaining 8.20 s)
18600000 of 30000000 tuples (62%) done (elapsed 13.26 s, remaining 8.13 s)
18700000 of 30000000 tuples (62%) done (elapsed 13.33 s, remaining 8.06 s)
18800000 of 30000000 tuples (62%) done (elapsed 13.40 s, remaining 7.98 s)
18900000 of 30000000 tuples (63%) done (elapsed 13.47 s, remaining 7.91 s)
19000000 of 30000000 tuples (63%) done (elapsed 13.54 s, remaining 7.84 s)
19100000 of 30000000 tuples (63%) done (elapsed 13.61 s, remaining 7.76 s)
19200000 of 30000000 tuples (64%) done (elapsed 13.68 s, remaining 7.69 s)
19300000 of 30000000 tuples (64%) done (elapsed 13.74 s, remaining 7.62 s)
19400000 of 30000000 tuples (64%) done (elapsed 13.82 s, remaining 7.55 s)
19500000 of 30000000 tuples (65%) done (elapsed 13.88 s, remaining 7.47 s)
19600000 of 30000000 tuples (65%) done (elapsed 13.95 s, remaining 7.40 s)
19700000 of 30000000 tuples (65%) done (elapsed 14.02 s, remaining 7.33 s)
19800000 of 30000000 tuples (66%) done (elapsed 14.09 s, remaining 7.26 s)
19900000 of 30000000 tuples (66%) done (elapsed 14.16 s, remaining 7.19 s)
20000000 of 30000000 tuples (66%) done (elapsed 14.23 s, remaining 7.11 s)
20100000 of 30000000 tuples (67%) done (elapsed 14.29 s, remaining 7.04 s)
20200000 of 30000000 tuples (67%) done (elapsed 14.37 s, remaining 6.97 s)
20300000 of 30000000 tuples (67%) done (elapsed 14.43 s, remaining 6.90 s)
20400000 of 30000000 tuples (68%) done (elapsed 14.50 s, remaining 6.83 s)
20500000 of 30000000 tuples (68%) done (elapsed 14.57 s, remaining 6.75 s)
20600000 of 30000000 tuples (68%) done (elapsed 14.64 s, remaining 6.68 s)
20700000 of 30000000 tuples (69%) done (elapsed 14.71 s, remaining 6.61 s)
20800000 of 30000000 tuples (69%) done (elapsed 14.78 s, remaining 6.54 s)
20900000 of 30000000 tuples (69%) done (elapsed 14.84 s, remaining 6.46 s)
21000000 of 30000000 tuples (70%) done (elapsed 14.91 s, remaining 6.39 s)
21100000 of 30000000 tuples (70%) done (elapsed 14.98 s, remaining 6.32 s)
21200000 of 30000000 tuples (70%) done (elapsed 15.05 s, remaining 6.25 s)
21300000 of 30000000 tuples (71%) done (elapsed 15.12 s, remaining 6.18 s)
21400000 of 30000000 tuples (71%) done (elapsed 15.19 s, remaining 6.10 s)
21500000 of 30000000 tuples (71%) done (elapsed 15.26 s, remaining 6.03 s)
21600000 of 30000000 tuples (72%) done (elapsed 15.33 s, remaining 5.96 s)
21700000 of 30000000 tuples (72%) done (elapsed 15.39 s, remaining 5.89 s)
21800000 of 30000000 tuples (72%) done (elapsed 15.47 s, remaining 5.82 s)
21900000 of 30000000 tuples (73%) done (elapsed 15.53 s, remaining 5.74 s)
22000000 of 30000000 tuples (73%) done (elapsed 15.60 s, remaining 5.67 s)
22100000 of 30000000 tuples (73%) done (elapsed 15.67 s, remaining 5.60 s)
22200000 of 30000000 tuples (74%) done (elapsed 15.74 s, remaining 5.53 s)
22300000 of 30000000 tuples (74%) done (elapsed 15.81 s, remaining 5.46 s)
22400000 of 30000000 tuples (74%) done (elapsed 15.88 s, remaining 5.39 s)
22500000 of 30000000 tuples (75%) done (elapsed 15.95 s, remaining 5.32 s)
22600000 of 30000000 tuples (75%) done (elapsed 16.01 s, remaining 5.24 s)
22700000 of 30000000 tuples (75%) done (elapsed 16.09 s, remaining 5.17 s)
22800000 of 30000000 tuples (76%) done (elapsed 16.15 s, remaining 5.10 s)
22900000 of 30000000 tuples (76%) done (elapsed 16.22 s, remaining 5.03 s)
23000000 of 30000000 tuples (76%) done (elapsed 16.29 s, remaining 4.96 s)
23100000 of 30000000 tuples (77%) done (elapsed 16.36 s, remaining 4.89 s)
23200000 of 30000000 tuples (77%) done (elapsed 16.43 s, remaining 4.82 s)
23300000 of 30000000 tuples (77%) done (elapsed 16.50 s, remaining 4.74 s)
23400000 of 30000000 tuples (78%) done (elapsed 16.57 s, remaining 4.67 s)
23500000 of 30000000 tuples (78%) done (elapsed 16.64 s, remaining 4.60 s)
23600000 of 30000000 tuples (78%) done (elapsed 16.71 s, remaining 4.53 s)
23700000 of 30000000 tuples (79%) done (elapsed 16.77 s, remaining 4.46 s)
23800000 of 30000000 tuples (79%) done (elapsed 16.85 s, remaining 4.39 s)
23900000 of 30000000 tuples (79%) done (elapsed 16.91 s, remaining 4.32 s)
24000000 of 30000000 tuples (80%) done (elapsed 16.98 s, remaining 4.25 s)
24100000 of 30000000 tuples (80%) done (elapsed 17.05 s, remaining 4.17 s)
24200000 of 30000000 tuples (80%) done (elapsed 17.12 s, remaining 4.10 s)
24300000 of 30000000 tuples (81%) done (elapsed 17.19 s, remaining 4.03 s)
24400000 of 30000000 tuples (81%) done (elapsed 17.26 s, remaining 3.96 s)
24500000 of 30000000 tuples (81%) done (elapsed 17.33 s, remaining 3.89 s)
24600000 of 30000000 tuples (82%) done (elapsed 17.40 s, remaining 3.82 s)
24700000 of 30000000 tuples (82%) done (elapsed 17.47 s, remaining 3.75 s)
24800000 of 30000000 tuples (82%) done (elapsed 17.53 s, remaining 3.68 s)
24900000 of 30000000 tuples (83%) done (elapsed 17.60 s, remaining 3.61 s)
25000000 of 30000000 tuples (83%) done (elapsed 17.67 s, remaining 3.53 s)
25100000 of 30000000 tuples (83%) done (elapsed 17.74 s, remaining 3.46 s)
25200000 of 30000000 tuples (84%) done (elapsed 17.81 s, remaining 3.39 s)
25300000 of 30000000 tuples (84%) done (elapsed 17.88 s, remaining 3.32 s)
25400000 of 30000000 tuples (84%) done (elapsed 17.95 s, remaining 3.25 s)
25500000 of 30000000 tuples (85%) done (elapsed 18.02 s, remaining 3.18 s)
25600000 of 30000000 tuples (85%) done (elapsed 18.09 s, remaining 3.11 s)
25700000 of 30000000 tuples (85%) done (elapsed 18.16 s, remaining 3.04 s)
25800000 of 30000000 tuples (86%) done (elapsed 18.22 s, remaining 2.97 s)
25900000 of 30000000 tuples (86%) done (elapsed 18.30 s, remaining 2.90 s)
26000000 of 30000000 tuples (86%) done (elapsed 18.36 s, remaining 2.82 s)
26100000 of 30000000 tuples (87%) done (elapsed 18.43 s, remaining 2.75 s)
26200000 of 30000000 tuples (87%) done (elapsed 18.50 s, remaining 2.68 s)
26300000 of 30000000 tuples (87%) done (elapsed 18.57 s, remaining 2.61 s)
26400000 of 30000000 tuples (88%) done (elapsed 18.64 s, remaining 2.54 s)
26500000 of 30000000 tuples (88%) done (elapsed 18.71 s, remaining 2.47 s)
26600000 of 30000000 tuples (88%) done (elapsed 18.77 s, remaining 2.40 s)
26700000 of 30000000 tuples (89%) done (elapsed 18.85 s, remaining 2.33 s)
26800000 of 30000000 tuples (89%) done (elapsed 18.91 s, remaining 2.26 s)
26900000 of 30000000 tuples (89%) done (elapsed 18.98 s, remaining 2.19 s)
27000000 of 30000000 tuples (90%) done (elapsed 19.05 s, remaining 2.12 s)
27100000 of 30000000 tuples (90%) done (elapsed 19.12 s, remaining 2.05 s)
27200000 of 30000000 tuples (90%) done (elapsed 19.19 s, remaining 1.98 s)
27300000 of 30000000 tuples (91%) done (elapsed 19.26 s, remaining 1.90 s)
27400000 of 30000000 tuples (91%) done (elapsed 19.33 s, remaining 1.83 s)
27500000 of 30000000 tuples (91%) done (elapsed 19.40 s, remaining 1.76 s)
27600000 of 30000000 tuples (92%) done (elapsed 19.47 s, remaining 1.69 s)
27700000 of 30000000 tuples (92%) done (elapsed 19.54 s, remaining 1.62 s)
27800000 of 30000000 tuples (92%) done (elapsed 19.60 s, remaining 1.55 s)
27900000 of 30000000 tuples (93%) done (elapsed 19.68 s, remaining 1.48 s)
28000000 of 30000000 tuples (93%) done (elapsed 19.74 s, remaining 1.41 s)
28100000 of 30000000 tuples (93%) done (elapsed 19.81 s, remaining 1.34 s)
28200000 of 30000000 tuples (94%) done (elapsed 19.88 s, remaining 1.27 s)
28300000 of 30000000 tuples (94%) done (elapsed 19.95 s, remaining 1.20 s)
28400000 of 30000000 tuples (94%) done (elapsed 20.02 s, remaining 1.13 s)
28500000 of 30000000 tuples (95%) done (elapsed 20.09 s, remaining 1.06 s)
28600000 of 30000000 tuples (95%) done (elapsed 20.16 s, remaining 0.99 s)
28700000 of 30000000 tuples (95%) done (elapsed 20.23 s, remaining 0.92 s)
28800000 of 30000000 tuples (96%) done (elapsed 20.29 s, remaining 0.85 s)
28900000 of 30000000 tuples (96%) done (elapsed 20.37 s, remaining 0.78 s)
29000000 of 30000000 tuples (96%) done (elapsed 20.43 s, remaining 0.70 s)
29100000 of 30000000 tuples (97%) done (elapsed 20.50 s, remaining 0.63 s)
29200000 of 30000000 tuples (97%) done (elapsed 20.57 s, remaining 0.56 s)
29300000 of 30000000 tuples (97%) done (elapsed 20.64 s, remaining 0.49 s)
29400000 of 30000000 tuples (98%) done (elapsed 20.71 s, remaining 0.42 s)
29500000 of 30000000 tuples (98%) done (elapsed 20.78 s, remaining 0.35 s)
29600000 of 30000000 tuples (98%) done (elapsed 20.85 s, remaining 0.28 s)
29700000 of 30000000 tuples (99%) done (elapsed 20.92 s, remaining 0.21 s)
29800000 of 30000000 tuples (99%) done (elapsed 20.99 s, remaining 0.14 s)
29900000 of 30000000 tuples (99%) done (elapsed 21.05 s, remaining 0.07 s)
30000000 of 30000000 tuples (100%) done (elapsed 21.12 s, remaining 0.00 s)
vacuum...
set primary keys...
done.
