starting vacuum...end.
transaction type: <builtin: TPC-B (sort of)>
scaling factor: 300
query mode: prepared
number of clients: 180
number of threads: 45
duration: 300 s
number of transactions actually processed: 27917465
latency average = 1.934 ms
tps = 93057.156125 (including connections establishing)
tps = 93061.467838 (excluding connections establishing)
