starting vacuum...end.
transaction type: /home/tvondra/kernel-3.10.0/dilip-3000.sql
scaling factor: 1
query mode: prepared
number of clients: 144
number of threads: 36
duration: 300 s
number of transactions actually processed: 25055946
latency average = 1.724 ms
tps = 83519.349229 (including connections establishing)
tps = 83524.258205 (excluding connections establishing)
