starting vacuum...end.
transaction type: /home/tvondra/kernel-3.10.0/dilip-3000.sql
scaling factor: 1
query mode: prepared
number of clients: 108
number of threads: 27
duration: 300 s
number of transactions actually processed: 20658728
latency average = 1.568 ms
tps = 68862.086717 (including connections establishing)
tps = 68865.052723 (excluding connections establishing)
