starting vacuum...end.
transaction type: /home/tvondra/kernel-3.10.0/dilip-3000.sql
scaling factor: 1
query mode: prepared
number of clients: 252
number of threads: 63
duration: 300 s
number of transactions actually processed: 12540936
latency average = 6.028 ms
tps = 41802.667695 (including connections establishing)
tps = 41805.416393 (excluding connections establishing)
