starting vacuum...end.
transaction type: <builtin: TPC-B (sort of)>
scaling factor: 3000
query mode: prepared
number of clients: 36
number of threads: 9
duration: 300 s
number of transactions actually processed: 5237950
latency average = 2.062 ms
tps = 17459.733755 (including connections establishing)
tps = 17459.986918 (excluding connections establishing)
