starting vacuum...end.
transaction type: <builtin: simple update>
scaling factor: 3000
query mode: prepared
number of clients: 288
number of threads: 72
duration: 300 s
number of transactions actually processed: 18583690
latency average = 4.650 ms
tps = 61938.585548 (including connections establishing)
tps = 61943.116840 (excluding connections establishing)
