starting vacuum...end.
transaction type: /home/tvondra/kernel-3.10.0/dilip-3000.sql
scaling factor: 1
query mode: prepared
number of clients: 36
number of threads: 9
duration: 300 s
number of transactions actually processed: 28386650
latency average = 0.380 ms
tps = 94621.996032 (including connections establishing)
tps = 94623.340303 (excluding connections establishing)
