starting vacuum...end.
transaction type: <builtin: simple update>
scaling factor: 3000
query mode: prepared
number of clients: 144
number of threads: 36
duration: 300 s
number of transactions actually processed: 8646827
latency average = 4.996 ms
tps = 28821.926595 (including connections establishing)
tps = 28823.044374 (excluding connections establishing)
