starting vacuum...end.
transaction type: <builtin: TPC-B (sort of)>
scaling factor: 3000
query mode: prepared
number of clients: 252
number of threads: 63
duration: 300 s
number of transactions actually processed: 15511801
latency average = 4.874 ms
tps = 51704.314670 (including connections establishing)
tps = 51709.007897 (excluding connections establishing)
