starting vacuum...end.
transaction type: <builtin: simple update>
scaling factor: 3000
query mode: prepared
number of clients: 72
number of threads: 18
duration: 300 s
number of transactions actually processed: 7471076
latency average = 2.891 ms
tps = 24902.847135 (including connections establishing)
tps = 24903.390742 (excluding connections establishing)
