starting vacuum...end.
transaction type: <builtin: simple update>
scaling factor: 3000
query mode: prepared
number of clients: 72
number of threads: 8
duration: 300 s
number of transactions actually processed: 5334476
latency average = 4.049 ms
tps = 17781.133959 (including connections establishing)
tps = 17781.350539 (excluding connections establishing)
