starting vacuum...end.
transaction type: <builtin: simple update>
scaling factor: 3000
query mode: prepared
number of clients: 252
number of threads: 63
duration: 300 s
number of transactions actually processed: 20191097
latency average = 3.747 ms
tps = 67259.381609 (including connections establishing)
tps = 67263.569305 (excluding connections establishing)
