starting vacuum...end.
transaction type: /home/tvondra/kernel-3.10.0/dilip-3000.sql
scaling factor: 1
query mode: prepared
number of clients: 288
number of threads: 72
duration: 300 s
number of transactions actually processed: 12193042
latency average = 7.086 ms
tps = 40642.812210 (including connections establishing)
tps = 40646.102268 (excluding connections establishing)
