starting vacuum...end.
transaction type: /home/tvondra/kernel-3.10.0/dilip-3000.sql
scaling factor: 1
query mode: prepared
number of clients: 216
number of threads: 54
duration: 300 s
number of transactions actually processed: 12253381
latency average = 5.291 ms
tps = 40823.855425 (including connections establishing)
tps = 40826.412354 (excluding connections establishing)
