starting vacuum...end.
transaction type: <builtin: TPC-B (sort of)>
scaling factor: 300
query mode: prepared
number of clients: 252
number of threads: 63
duration: 300 s
number of transactions actually processed: 41549948
latency average = 1.820 ms
tps = 138498.137451 (including connections establishing)
tps = 138506.274456 (excluding connections establishing)
