starting vacuum...end.
transaction type: <builtin: simple update>
scaling factor: 3000
query mode: prepared
number of clients: 108
number of threads: 27
duration: 300 s
number of transactions actually processed: 41769027
latency average = 0.776 ms
tps = 139229.113540 (including connections establishing)
tps = 139234.840555 (excluding connections establishing)
