starting vacuum...end.
transaction type: <builtin: TPC-B (sort of)>
scaling factor: 300
query mode: prepared
number of clients: 108
number of threads: 27
duration: 300 s
number of transactions actually processed: 44971891
latency average = 0.720 ms
tps = 149904.957686 (including connections establishing)
tps = 149908.847259 (excluding connections establishing)
