starting vacuum...end.
transaction type: /home/tvondra/kernel-3.10.0/dilip-300.sql
scaling factor: 1
query mode: prepared
number of clients: 36
number of threads: 9
duration: 300 s
number of transactions actually processed: 33283827
latency average = 0.324 ms
tps = 110945.777873 (including connections establishing)
tps = 110947.345698 (excluding connections establishing)
