starting vacuum...end.
transaction type: <builtin: TPC-B (sort of)>
scaling factor: 3000
query mode: prepared
number of clients: 288
number of threads: 72
duration: 300 s
number of transactions actually processed: 12789865
latency average = 6.755 ms
tps = 42632.281508 (including connections establishing)
tps = 42635.034372 (excluding connections establishing)
