starting vacuum...end.
transaction type: <builtin: simple update>
scaling factor: 300
query mode: prepared
number of clients: 288
number of threads: 72
duration: 300 s
number of transactions actually processed: 66159315
latency average = 1.306 ms
tps = 220529.150509 (including connections establishing)
tps = 220542.363951 (excluding connections establishing)
