starting vacuum...end.
transaction type: <builtin: simple update>
scaling factor: 300
query mode: prepared
number of clients: 144
number of threads: 36
duration: 300 s
number of transactions actually processed: 68291913
latency average = 0.633 ms
tps = 227638.094528 (including connections establishing)
tps = 227647.036873 (excluding connections establishing)
