starting vacuum...end.
transaction type: <builtin: simple update>
scaling factor: 300
query mode: prepared
number of clients: 180
number of threads: 45
duration: 300 s
number of transactions actually processed: 36424950
latency average = 1.483 ms
tps = 121415.686515 (including connections establishing)
tps = 121420.833417 (excluding connections establishing)
