starting vacuum...end.
transaction type: /home/tvondra/kernel-3.10.0/dilip-3000.sql
scaling factor: 1
query mode: prepared
number of clients: 216
number of threads: 54
duration: 300 s
number of transactions actually processed: 36379222
latency average = 1.781 ms
tps = 121263.037747 (including connections establishing)
tps = 121272.495796 (excluding connections establishing)
