starting vacuum...end.
transaction type: /home/tvondra/kernel-3.10.0/dilip-3000.sql
scaling factor: 1
query mode: prepared
number of clients: 144
number of threads: 36
duration: 300 s
number of transactions actually processed: 39467805
latency average = 1.095 ms
tps = 131558.673350 (including connections establishing)
tps = 131566.397650 (excluding connections establishing)
