starting vacuum...end.
transaction type: /home/tvondra/kernel-3.10.0/dilip-300.sql
scaling factor: 1
query mode: prepared
number of clients: 252
number of threads: 63
duration: 300 s
number of transactions actually processed: 17541584
latency average = 4.310 ms
tps = 58471.282823 (including connections establishing)
tps = 58475.281076 (excluding connections establishing)
