starting vacuum...end.
transaction type: /home/tvondra/kernel-3.10.0/dilip-300.sql
scaling factor: 1
query mode: prepared
number of clients: 72
number of threads: 18
duration: 300 s
number of transactions actually processed: 19512540
latency average = 1.107 ms
tps = 65041.482598 (including connections establishing)
tps = 65042.811750 (excluding connections establishing)
