starting vacuum...end.
transaction type: <builtin: simple update>
scaling factor: 3000
query mode: prepared
number of clients: 72
number of threads: 18
duration: 300 s
number of transactions actually processed: 7243233
latency average = 2.982 ms
tps = 24142.758006 (including connections establishing)
tps = 24143.247991 (excluding connections establishing)
