starting vacuum...end.
transaction type: <builtin: TPC-B (sort of)>
scaling factor: 3000
query mode: prepared
number of clients: 288
number of threads: 72
duration: 300 s
number of transactions actually processed: 19634691
latency average = 4.400 ms
tps = 65447.671300 (including connections establishing)
tps = 65454.177595 (excluding connections establishing)
