starting vacuum...end.
transaction type: <builtin: TPC-B (sort of)>
scaling factor: 300
query mode: prepared
number of clients: 72
number of threads: 8
duration: 300 s
number of transactions actually processed: 39400569
latency average = 0.548 ms
tps = 131334.879336 (including connections establishing)
tps = 131336.418516 (excluding connections establishing)
