starting vacuum...end.
transaction type: /home/tvondra/kernel-3.10.0/dilip-300.sql
scaling factor: 1
query mode: prepared
number of clients: 198
number of threads: 49
duration: 300 s
number of transactions actually processed: 20227000
latency average = 2.937 ms
tps = 67422.744059 (including connections establishing)
tps = 67425.981798 (excluding connections establishing)
