starting vacuum...end.
transaction type: <builtin: TPC-B (sort of)>
scaling factor: 300
query mode: prepared
number of clients: 252
number of threads: 63
duration: 300 s
number of transactions actually processed: 43055684
latency average = 1.756 ms
tps = 143517.218719 (including connections establishing)
tps = 143525.435679 (excluding connections establishing)
