starting vacuum...end.
transaction type: <builtin: TPC-B (sort of)>
scaling factor: 300
query mode: prepared
number of clients: 288
number of threads: 72
duration: 300 s
number of transactions actually processed: 28927102
latency average = 2.987 ms
tps = 96421.687368 (including connections establishing)
tps = 96428.452307 (excluding connections establishing)
