starting vacuum...end.
transaction type: <builtin: simple update>
scaling factor: 3000
query mode: prepared
number of clients: 288
number of threads: 72
duration: 300 s
number of transactions actually processed: 22510926
latency average = 3.838 ms
tps = 75035.431283 (including connections establishing)
tps = 75042.807833 (excluding connections establishing)
