BINDIR = /home/tvondra/clog-builds/pg-9.6-master/bin
DOCDIR = /home/tvondra/clog-builds/pg-9.6-master/share/doc/postgresql
HTMLDIR = /home/tvondra/clog-builds/pg-9.6-master/share/doc/postgresql
INCLUDEDIR = /home/tvondra/clog-builds/pg-9.6-master/include
PKGINCLUDEDIR = /home/tvondra/clog-builds/pg-9.6-master/include/postgresql
INCLUDEDIR-SERVER = /home/tvondra/clog-builds/pg-9.6-master/include/postgresql/server
LIBDIR = /home/tvondra/clog-builds/pg-9.6-master/lib
PKGLIBDIR = /home/tvondra/clog-builds/pg-9.6-master/lib/postgresql
LOCALEDIR = /home/tvondra/clog-builds/pg-9.6-master/share/locale
MANDIR = /home/tvondra/clog-builds/pg-9.6-master/share/man
SHAREDIR = /home/tvondra/clog-builds/pg-9.6-master/share/postgresql
SYSCONFDIR = /home/tvondra/clog-builds/pg-9.6-master/etc/postgresql
PGXS = /home/tvondra/clog-builds/pg-9.6-master/lib/postgresql/pgxs/src/makefiles/pgxs.mk
CONFIGURE = '--prefix=/home/tvondra/clog-builds/pg-9.6-master' '--enable-debug' 'CFLAGS=-O2 -fno-omit-frame-pointer'
CC = gcc
CPPFLAGS = -DFRONTEND -D_GNU_SOURCE
CFLAGS = -Wall -Wmissing-prototypes -Wpointer-arith -Wdeclaration-after-statement -Wendif-labels -Wmissing-format-attribute -Wformat-security -fno-strict-aliasing -fwrapv -fexcess-precision=standard -g -O2 -fno-omit-frame-pointer
CFLAGS_SL = -fpic
LDFLAGS = -L../../src/common -Wl,--as-needed -Wl,-rpath,'/home/tvondra/clog-builds/pg-9.6-master/lib',--enable-new-dtags
LDFLAGS_EX = 
LDFLAGS_SL = 
LIBS = -lpgcommon -lpgport -lz -lreadline -lrt -lcrypt -ldl -lm  
VERSION = PostgreSQL 10devel
